{
  "Authentication":
    {
      "ConsumerKey": "1g2cf0DvVJ676bkyEsuhal6qJ",
      "ConsumerSecret": "ouYxqbIn6E0qj7rKxwn6KyvD4I0VugIZeDOmGR0UzHncME2Flz",
      "AccessToken": "1255092619325042688-dxlUGzE2E7wqfgjGyP3Yr9mDP7plKl",
      "AccessTokenSecret": "Ggh2djNMg7SQA7shfGZyhfyR5G0cHGqbrajYM2hgYYCxd",
      "comment": "Xuanzhe"
    },

  "location_info":
    {
      "tweets_db": "melb_tweets",
      "user_db": "melb_east_users",
      "location": "melbourne",
      "Geocode": "",
      "location_box": [144.947,-38.468,145.0659,-36.882]
    },

  "db_info":
    {
      "admin": "ccc-grp-50",
      "password": "1035403"
    },

  "features": []

}