﻿sa3,Average_access,lat ,long
10201,7.46409,-33.49564806,151.3714225
10202,4.31492,-33.30177937,151.4987874
11501,9.296853553,-33.734143,151.0157415
11504,8.30467,,
11601,17.78075134,-33.7649126,150.9420512
11602,11.92519889,-33.72699875,150.9153656
11603,10.04906279,-33.75823938,150.8309759
11701,13.85434186,-33.94697767,151.2040713
11702,22.48945149,-33.9338015,151.185279
11703,23.1800623,-33.69910071,151.2249003
11801,14.33945986,-33.88105757,151.2594758
11802,13.00963228,-33.93488315,151.2327061
11901,16.67976617,-33.93934711,151.007752
11902,19.04414312,-33.92802002,151.0332908
11903,19.20360881,-33.96160011,151.0653427
11904,20.77426107,-33.96645647,151.1241469
12001,15.75738646,-33.84520167,151.1118273
12002,15.7775,-33.87448744,151.1696981
12003,24.09237495,-33.8867699,151.1131106
12101,19.21065393,-33.80726736,151.1838261
12102,14.83665153,-33.59852732,151.1517114
12103,15.66874264,-33.75198172,151.1581495
12104,17.00900665,-33.81537886,151.2099859
12201,8.442745556,-33.7105252,151.321906
12202,3.659886957,-33.64169136,151.3026237
12203,6.930884912,-33.74584549,151.2597079
12301,4.82936,,
12302,11.99675656,-34.0265471,150.8171454
12403,11.57201082,-34.20782909,150.6939342
12404,6.985331111,,
12405,14.24,,
12501,24.56942239,-33.86108249,151.0449621
12502,14.49138333,-33.85925767,151.101256
12503,15.97799202,-33.8763127,150.9879681
12504,19.3489095,-33.812213,150.9980198
12601,18.22191475,-33.74105943,151.0815473
12602,17.39242813,-33.80503692,151.1064599
12701,7.367787059,-33.99426001,150.6020248
12702,13.78979599,-33.85483243,150.8973385
12703,16.58105117,-33.93964604,150.9140799
12801,9.524885049,-34.04773439,151.1223317
12802,13.49125067,-34.05040966,151.0668074
